{
  "version": "14.0.4",
  "vulnerabilities": [
    {
      "id": "4f0732572cb4d73335808b1ab270a1383da343a14eedb2c3cad3c8319b35ab59",
      "category": "sast",
      "message": "Improper Check for Unusual or Exceptional Conditions",
      "description": "Use of assert detected. The enclosed code will be removed when\ncompiling to optimised byte code.\n",
      "cve": "",
      "severity": "Info",
      "scanner": {
        "id": "semgrep",
        "name": "Semgrep"
      },
      "location": {
        "file": "tests/test_simple.py",
        "start_line": 7
      },
      "identifiers": [
        {
          "type": "semgrep_id",
          "name": "bandit.B101",
          "value": "bandit.B101",
          "url": "https://semgrep.dev/r/gitlab.bandit.B101"
        },
        {
          "type": "cwe",
          "name": "CWE-754",
          "value": "754",
          "url": "https://cwe.mitre.org/data/definitions/754.html"
        },
        {
          "type": "bandit_test_id",
          "name": "Bandit Test ID B101",
          "value": "B101"
        }
      ],
      "tracking": {
        "type": "source",
        "items": [
          {
            "file": "tests/test_simple.py",
            "line_start": 7,
            "line_end": 7,
            "signatures": [
              {
                "algorithm": "scope_offset",
                "value": "tests/test_simple.py|test_success[0]:1"
              }
            ]
          }
        ]
      }
    }
  ],
  "scan": {
    "analyzer": {
      "id": "semgrep",
      "name": "Semgrep",
      "url": "https://gitlab.com/gitlab-org/security-products/analyzers/semgrep",
      "vendor": {
        "name": "GitLab"
      },
      "version": "3.7.2"
    },
    "scanner": {
      "id": "semgrep",
      "name": "Semgrep",
      "url": "https://github.com/returntocorp/semgrep",
      "vendor": {
        "name": "GitLab"
      },
      "version": "0.69.1"
    },
    "type": "sast",
    "start_time": "2021-11-03T20:33:31",
    "end_time": "2021-11-03T20:33:38",
    "status": "success"
  }
}
