{
  "version": "14.0.4",
  "vulnerabilities": [
    {
      "id": "701b292809f6bf2d686f24a5a9d2f509d8c40c391ae8809f02708379d6cc956f",
      "category": "sast",
      "message": "Improper Limitation of a Pathname to a Restricted Directory ('Path Traversal')",
      "description": "The software uses external input to construct a pathname that is intended\nto identify a file or directory that is located underneath a restricted\nparent directory, but the software does not properly neutralize special\nelements within the pathname that can cause the pathname to resolve to a\nlocation that is outside of the restricted directory..\n",
      "cve": "",
      "severity": "Medium",
      "scanner": {
        "id": "semgrep",
        "name": "Semgrep"
      },
      "location": {
        "file": "Project2/WebApp/Controllers/HomeController.cs",
        "start_line": 52
      },
      "identifiers": [
        {
          "type": "semgrep_id",
          "name": "security_code_scan.SCS0018-1",
          "value": "security_code_scan.SCS0018-1"
        },
        {
          "type": "cwe",
          "name": "CWE-22",
          "value": "22",
          "url": "https://cwe.mitre.org/data/definitions/22.html"
        },
        {
          "type": "security_code_scan_rule_id",
          "name": "SCS0018",
          "value": "SCS0018"
        }
      ],
      "tracking": {
        "type": "source",
        "items": [
          {
            "file": "Project2/WebApp/Controllers/HomeController.cs",
            "line_start": 52,
            "line_end": 52,
            "signatures": [
              {
                "algorithm": "scope_offset",
                "value": "Project2/WebApp/Controllers/HomeController.cs|HomeController[0]|IActionResult[5]:2"
              }
            ]
          }
        ]
      }
    },
    {
      "id": "f52693fb21397a6083efee5ce682066d4c168808b1902bb9462774ceed56e39f",
      "category": "sast",
      "message": "Incorrect Regular Expression",
      "description": "RegExp() called with a variable, this might allow an attacker to DOS your application with a long-running regular expression.\n",
      "cve": "",
      "severity": "Medium",
      "scanner": {
        "id": "semgrep",
        "name": "Semgrep"
      },
      "location": {
        "file": "Project2/WebApp/wwwroot/lib/jquery-validation-unobtrusive/jquery.validate.unobtrusive.js",
        "start_line": 345
      },
      "identifiers": [
        {
          "type": "semgrep_id",
          "name": "eslint.detect-non-literal-regexp",
          "value": "eslint.detect-non-literal-regexp",
          "url": "https://semgrep.dev/r/gitlab.eslint.detect-non-literal-regexp"
        },
        {
          "type": "cwe",
          "name": "CWE-185",
          "value": "185",
          "url": "https://cwe.mitre.org/data/definitions/185.html"
        },
        {
          "type": "eslint_rule_id",
          "name": "ESLint rule ID security/detect-non-literal-regexp",
          "value": "security/detect-non-literal-regexp"
        }
      ]
    },
    {
      "id": "ef2979a6deb7f32db32fc7376adb784232f6d806ae83848526e5715115b6fcab",
      "category": "sast",
      "message": "Improper Control of Generation of Code ('Code Injection')",
      "description": "Bracket object notation with user input is present, this might allow an attacker to access all properties of the object and even it's prototype, leading to possible code execution.",
      "cve": "",
      "severity": "Medium",
      "scanner": {
        "id": "semgrep",
        "name": "Semgrep"
      },
      "location": {
        "file": "Project2/WebApp/wwwroot/lib/jquery-validation-unobtrusive/jquery.validate.unobtrusive.js",
        "start_line": 25
      },
      "identifiers": [
        {
          "type": "semgrep_id",
          "name": "eslint.detect-object-injection",
          "value": "eslint.detect-object-injection",
          "url": "https://semgrep.dev/r/gitlab.eslint.detect-object-injection"
        },
        {
          "type": "cwe",
          "name": "CWE-94",
          "value": "94",
          "url": "https://cwe.mitre.org/data/definitions/94.html"
        },
        {
          "type": "eslint_rule_id",
          "name": "ESLint rule ID security/detect-object-injection",
          "value": "security/detect-object-injection"
        }
      ]
    },
    {
      "id": "6d128e4ec54aef33560c7757cecb9f1ccfde8ce781538009e78129f1ec811571",
      "category": "sast",
      "message": "Improper Control of Generation of Code ('Code Injection')",
      "description": "Bracket object notation with user input is present, this might allow an attacker to access all properties of the object and even it's prototype, leading to possible code execution.",
      "cve": "",
      "severity": "Medium",
      "scanner": {
        "id": "semgrep",
        "name": "Semgrep"
      },
      "location": {
        "file": "Project2/WebApp/wwwroot/lib/jquery-validation-unobtrusive/jquery.validate.unobtrusive.js",
        "start_line": 27
      },
      "identifiers": [
        {
          "type": "semgrep_id",
          "name": "eslint.detect-object-injection",
          "value": "eslint.detect-object-injection",
          "url": "https://semgrep.dev/r/gitlab.eslint.detect-object-injection"
        },
        {
          "type": "cwe",
          "name": "CWE-94",
          "value": "94",
          "url": "https://cwe.mitre.org/data/definitions/94.html"
        },
        {
          "type": "eslint_rule_id",
          "name": "ESLint rule ID security/detect-object-injection",
          "value": "security/detect-object-injection"
        }
      ]
    },
    {
      "id": "3b06442c1ea1e7ed7771236da1bcfc9930c022d35c09bbb6eee0d83604eb937c",
      "category": "sast",
      "message": "Improper Control of Generation of Code ('Code Injection')",
      "description": "Bracket object notation with user input is present, this might allow an attacker to access all properties of the object and even it's prototype, leading to possible code execution.",
      "cve": "",
      "severity": "Medium",
      "scanner": {
        "id": "semgrep",
        "name": "Semgrep"
      },
      "location": {
        "file": "Project2/WebApp/wwwroot/lib/jquery-validation-unobtrusive/jquery.validate.unobtrusive.js",
        "start_line": 129
      },
      "identifiers": [
        {
          "type": "semgrep_id",
          "name": "eslint.detect-object-injection",
          "value": "eslint.detect-object-injection",
          "url": "https://semgrep.dev/r/gitlab.eslint.detect-object-injection"
        },
        {
          "type": "cwe",
          "name": "CWE-94",
          "value": "94",
          "url": "https://cwe.mitre.org/data/definitions/94.html"
        },
        {
          "type": "eslint_rule_id",
          "name": "ESLint rule ID security/detect-object-injection",
          "value": "security/detect-object-injection"
        }
      ]
    },
    {
      "id": "50c97161ad901506085143b0f996b536082ea4c0411386ebd87db332dc582ea4",
      "category": "sast",
      "message": "Improper Control of Generation of Code ('Code Injection')",
      "description": "Bracket object notation with user input is present, this might allow an attacker to access all properties of the object and even it's prototype, leading to possible code execution.",
      "cve": "",
      "severity": "Medium",
      "scanner": {
        "id": "semgrep",
        "name": "Semgrep"
      },
      "location": {
        "file": "Project2/WebApp/wwwroot/lib/jquery-validation-unobtrusive/jquery.validate.unobtrusive.js",
        "start_line": 191
      },
      "identifiers": [
        {
          "type": "semgrep_id",
          "name": "eslint.detect-object-injection",
          "value": "eslint.detect-object-injection",
          "url": "https://semgrep.dev/r/gitlab.eslint.detect-object-injection"
        },
        {
          "type": "cwe",
          "name": "CWE-94",
          "value": "94",
          "url": "https://cwe.mitre.org/data/definitions/94.html"
        },
        {
          "type": "eslint_rule_id",
          "name": "ESLint rule ID security/detect-object-injection",
          "value": "security/detect-object-injection"
        }
      ]
    },
    {
      "id": "b99c49dd6503900de28677331abbad4632ae365dfd3e272a2db926c2cad57a2e",
      "category": "sast",
      "message": "Improper Control of Generation of Code ('Code Injection')",
      "description": "Bracket object notation with user input is present, this might allow an attacker to access all properties of the object and even it's prototype, leading to possible code execution.",
      "cve": "",
      "severity": "Medium",
      "scanner": {
        "id": "semgrep",
        "name": "Semgrep"
      },
      "location": {
        "file": "Project2/WebApp/wwwroot/lib/jquery-validation-unobtrusive/jquery.validate.unobtrusive.js",
        "start_line": 192
      },
      "identifiers": [
        {
          "type": "semgrep_id",
          "name": "eslint.detect-object-injection",
          "value": "eslint.detect-object-injection",
          "url": "https://semgrep.dev/r/gitlab.eslint.detect-object-injection"
        },
        {
          "type": "cwe",
          "name": "CWE-94",
          "value": "94",
          "url": "https://cwe.mitre.org/data/definitions/94.html"
        },
        {
          "type": "eslint_rule_id",
          "name": "ESLint rule ID security/detect-object-injection",
          "value": "security/detect-object-injection"
        }
      ]
    },
    {
      "id": "b80790ee70f9abdd0369542cecd3549975070e02ea210b1bbfb553624e9c9e93",
      "category": "sast",
      "message": "Improper Control of Generation of Code ('Code Injection')",
      "description": "Bracket object notation with user input is present, this might allow an attacker to access all properties of the object and even it's prototype, leading to possible code execution.",
      "cve": "",
      "severity": "Medium",
      "scanner": {
        "id": "semgrep",
        "name": "Semgrep"
      },
      "location": {
        "file": "Project2/WebApp/wwwroot/lib/jquery-validation-unobtrusive/jquery.validate.unobtrusive.js",
        "start_line": 203
      },
      "identifiers": [
        {
          "type": "semgrep_id",
          "name": "eslint.detect-object-injection",
          "value": "eslint.detect-object-injection",
          "url": "https://semgrep.dev/r/gitlab.eslint.detect-object-injection"
        },
        {
          "type": "cwe",
          "name": "CWE-94",
          "value": "94",
          "url": "https://cwe.mitre.org/data/definitions/94.html"
        },
        {
          "type": "eslint_rule_id",
          "name": "ESLint rule ID security/detect-object-injection",
          "value": "security/detect-object-injection"
        }
      ]
    },
    {
      "id": "c39e82331200c27696fd770b1f516f1d0efe7c8ce93a4ef46de54fdc72786287",
      "category": "sast",
      "message": "Improper Control of Generation of Code ('Code Injection')",
      "description": "Bracket object notation with user input is present, this might allow an attacker to access all properties of the object and even it's prototype, leading to possible code execution.",
      "cve": "",
      "severity": "Medium",
      "scanner": {
        "id": "semgrep",
        "name": "Semgrep"
      },
      "location": {
        "file": "Project2/WebApp/wwwroot/lib/jquery-validation-unobtrusive/jquery.validate.unobtrusive.js",
        "start_line": 331
      },
      "identifiers": [
        {
          "type": "semgrep_id",
          "name": "eslint.detect-object-injection",
          "value": "eslint.detect-object-injection",
          "url": "https://semgrep.dev/r/gitlab.eslint.detect-object-injection"
        },
        {
          "type": "cwe",
          "name": "CWE-94",
          "value": "94",
          "url": "https://cwe.mitre.org/data/definitions/94.html"
        },
        {
          "type": "eslint_rule_id",
          "name": "ESLint rule ID security/detect-object-injection",
          "value": "security/detect-object-injection"
        }
      ]
    },
    {
      "id": "a56f3afdd33beda42b7e9a5ae2a01a34bee50994e7b46f45df48dcafeb02f8dc",
      "category": "sast",
      "message": "Use of Cryptographically Weak Pseudo-Random Number Generator (PRNG)",
      "description": "The use of a predictable random value can lead to vulnerabilities when used in certain security\ncritical contexts.\n",
      "cve": "",
      "severity": "Medium",
      "scanner": {
        "id": "semgrep",
        "name": "Semgrep"
      },
      "location": {
        "file": "Project2/WebLib/GetRandom.cs",
        "start_line": 11
      },
      "identifiers": [
        {
          "type": "semgrep_id",
          "name": "security_code_scan.SCS0005-1",
          "value": "security_code_scan.SCS0005-1"
        },
        {
          "type": "cwe",
          "name": "CWE-338",
          "value": "338",
          "url": "https://cwe.mitre.org/data/definitions/338.html"
        },
        {
          "type": "security_code_scan_rule_id",
          "name": "SCS0005",
          "value": "SCS0005"
        }
      ],
      "tracking": {
        "type": "source",
        "items": [
          {
            "file": "Project2/WebLib/GetRandom.cs",
            "line_start": 11,
            "line_end": 11,
            "signatures": [
              {
                "algorithm": "scope_offset",
                "value": "Project2/WebLib/GetRandom.cs|WebLib[0]|GetRandom[0]|RandomNumber[0]:4"
              }
            ]
          }
        ]
      }
    },
    {
      "id": "0ad94cadbc61fbf5b01eee3d82d37fab3620be26fba3ba45b7263b9790ced6c4",
      "category": "sast",
      "message": "Improper Limitation of a Pathname to a Restricted Directory ('Path Traversal')",
      "description": "The software uses external input to construct a pathname that is intended\nto identify a file or directory that is located underneath a restricted\nparent directory, but the software does not properly neutralize special\nelements within the pathname that can cause the pathname to resolve to a\nlocation that is outside of the restricted directory..\n",
      "cve": "",
      "severity": "Medium",
      "scanner": {
        "id": "semgrep",
        "name": "Semgrep"
      },
      "location": {
        "file": "WebApp/Controllers/HomeController.cs",
        "start_line": 52
      },
      "identifiers": [
        {
          "type": "semgrep_id",
          "name": "security_code_scan.SCS0018-1",
          "value": "security_code_scan.SCS0018-1"
        },
        {
          "type": "cwe",
          "name": "CWE-22",
          "value": "22",
          "url": "https://cwe.mitre.org/data/definitions/22.html"
        },
        {
          "type": "security_code_scan_rule_id",
          "name": "SCS0018",
          "value": "SCS0018"
        }
      ],
      "tracking": {
        "type": "source",
        "items": [
          {
            "file": "WebApp/Controllers/HomeController.cs",
            "line_start": 52,
            "line_end": 52,
            "signatures": [
              {
                "algorithm": "scope_offset",
                "value": "WebApp/Controllers/HomeController.cs|HomeController[0]|IActionResult[5]:2"
              }
            ]
          }
        ]
      }
    },
    {
      "id": "886361300f776dd259497d707dceea967929a7776fde7520cb50fec24fb2c1f6",
      "category": "sast",
      "message": "Incorrect Regular Expression",
      "description": "RegExp() called with a variable, this might allow an attacker to DOS your application with a long-running regular expression.\n",
      "cve": "",
      "severity": "Medium",
      "scanner": {
        "id": "semgrep",
        "name": "Semgrep"
      },
      "location": {
        "file": "WebApp/wwwroot/lib/jquery-validation-unobtrusive/jquery.validate.unobtrusive.js",
        "start_line": 345
      },
      "identifiers": [
        {
          "type": "semgrep_id",
          "name": "eslint.detect-non-literal-regexp",
          "value": "eslint.detect-non-literal-regexp",
          "url": "https://semgrep.dev/r/gitlab.eslint.detect-non-literal-regexp"
        },
        {
          "type": "cwe",
          "name": "CWE-185",
          "value": "185",
          "url": "https://cwe.mitre.org/data/definitions/185.html"
        },
        {
          "type": "eslint_rule_id",
          "name": "ESLint rule ID security/detect-non-literal-regexp",
          "value": "security/detect-non-literal-regexp"
        }
      ]
    },
    {
      "id": "ea53f51a56bbb65e3f24bbeb7cb71e07068f3fa7efcc0058b78bc10c3a6ea2a9",
      "category": "sast",
      "message": "Improper Control of Generation of Code ('Code Injection')",
      "description": "Bracket object notation with user input is present, this might allow an attacker to access all properties of the object and even it's prototype, leading to possible code execution.",
      "cve": "",
      "severity": "Medium",
      "scanner": {
        "id": "semgrep",
        "name": "Semgrep"
      },
      "location": {
        "file": "WebApp/wwwroot/lib/jquery-validation-unobtrusive/jquery.validate.unobtrusive.js",
        "start_line": 25
      },
      "identifiers": [
        {
          "type": "semgrep_id",
          "name": "eslint.detect-object-injection",
          "value": "eslint.detect-object-injection",
          "url": "https://semgrep.dev/r/gitlab.eslint.detect-object-injection"
        },
        {
          "type": "cwe",
          "name": "CWE-94",
          "value": "94",
          "url": "https://cwe.mitre.org/data/definitions/94.html"
        },
        {
          "type": "eslint_rule_id",
          "name": "ESLint rule ID security/detect-object-injection",
          "value": "security/detect-object-injection"
        }
      ]
    },
    {
      "id": "6f7061aeeced6121b07ae8fc1d5260b4953b374fd897224466a4a442b808ec62",
      "category": "sast",
      "message": "Improper Control of Generation of Code ('Code Injection')",
      "description": "Bracket object notation with user input is present, this might allow an attacker to access all properties of the object and even it's prototype, leading to possible code execution.",
      "cve": "",
      "severity": "Medium",
      "scanner": {
        "id": "semgrep",
        "name": "Semgrep"
      },
      "location": {
        "file": "WebApp/wwwroot/lib/jquery-validation-unobtrusive/jquery.validate.unobtrusive.js",
        "start_line": 27
      },
      "identifiers": [
        {
          "type": "semgrep_id",
          "name": "eslint.detect-object-injection",
          "value": "eslint.detect-object-injection",
          "url": "https://semgrep.dev/r/gitlab.eslint.detect-object-injection"
        },
        {
          "type": "cwe",
          "name": "CWE-94",
          "value": "94",
          "url": "https://cwe.mitre.org/data/definitions/94.html"
        },
        {
          "type": "eslint_rule_id",
          "name": "ESLint rule ID security/detect-object-injection",
          "value": "security/detect-object-injection"
        }
      ]
    },
    {
      "id": "af6dd6c3fddd961e9a7a22af892cf5fb58d876d1b08efd8a085349f8ab802a6e",
      "category": "sast",
      "message": "Improper Control of Generation of Code ('Code Injection')",
      "description": "Bracket object notation with user input is present, this might allow an attacker to access all properties of the object and even it's prototype, leading to possible code execution.",
      "cve": "",
      "severity": "Medium",
      "scanner": {
        "id": "semgrep",
        "name": "Semgrep"
      },
      "location": {
        "file": "WebApp/wwwroot/lib/jquery-validation-unobtrusive/jquery.validate.unobtrusive.js",
        "start_line": 129
      },
      "identifiers": [
        {
          "type": "semgrep_id",
          "name": "eslint.detect-object-injection",
          "value": "eslint.detect-object-injection",
          "url": "https://semgrep.dev/r/gitlab.eslint.detect-object-injection"
        },
        {
          "type": "cwe",
          "name": "CWE-94",
          "value": "94",
          "url": "https://cwe.mitre.org/data/definitions/94.html"
        },
        {
          "type": "eslint_rule_id",
          "name": "ESLint rule ID security/detect-object-injection",
          "value": "security/detect-object-injection"
        }
      ]
    },
    {
      "id": "4c9c9c52354df2909176d069d19e75037572f72f61e2303e9c0e63b810dbad54",
      "category": "sast",
      "message": "Improper Control of Generation of Code ('Code Injection')",
      "description": "Bracket object notation with user input is present, this might allow an attacker to access all properties of the object and even it's prototype, leading to possible code execution.",
      "cve": "",
      "severity": "Medium",
      "scanner": {
        "id": "semgrep",
        "name": "Semgrep"
      },
      "location": {
        "file": "WebApp/wwwroot/lib/jquery-validation-unobtrusive/jquery.validate.unobtrusive.js",
        "start_line": 191
      },
      "identifiers": [
        {
          "type": "semgrep_id",
          "name": "eslint.detect-object-injection",
          "value": "eslint.detect-object-injection",
          "url": "https://semgrep.dev/r/gitlab.eslint.detect-object-injection"
        },
        {
          "type": "cwe",
          "name": "CWE-94",
          "value": "94",
          "url": "https://cwe.mitre.org/data/definitions/94.html"
        },
        {
          "type": "eslint_rule_id",
          "name": "ESLint rule ID security/detect-object-injection",
          "value": "security/detect-object-injection"
        }
      ]
    },
    {
      "id": "35d251e0911b092a67987ec609d4e5e6f422c60766b70fd641393c42b2a92b32",
      "category": "sast",
      "message": "Improper Control of Generation of Code ('Code Injection')",
      "description": "Bracket object notation with user input is present, this might allow an attacker to access all properties of the object and even it's prototype, leading to possible code execution.",
      "cve": "",
      "severity": "Medium",
      "scanner": {
        "id": "semgrep",
        "name": "Semgrep"
      },
      "location": {
        "file": "WebApp/wwwroot/lib/jquery-validation-unobtrusive/jquery.validate.unobtrusive.js",
        "start_line": 192
      },
      "identifiers": [
        {
          "type": "semgrep_id",
          "name": "eslint.detect-object-injection",
          "value": "eslint.detect-object-injection",
          "url": "https://semgrep.dev/r/gitlab.eslint.detect-object-injection"
        },
        {
          "type": "cwe",
          "name": "CWE-94",
          "value": "94",
          "url": "https://cwe.mitre.org/data/definitions/94.html"
        },
        {
          "type": "eslint_rule_id",
          "name": "ESLint rule ID security/detect-object-injection",
          "value": "security/detect-object-injection"
        }
      ]
    },
    {
      "id": "1431631f453941a9b313a9196693bbb5c26cacb17ffca8107b0113193976722f",
      "category": "sast",
      "message": "Improper Control of Generation of Code ('Code Injection')",
      "description": "Bracket object notation with user input is present, this might allow an attacker to access all properties of the object and even it's prototype, leading to possible code execution.",
      "cve": "",
      "severity": "Medium",
      "scanner": {
        "id": "semgrep",
        "name": "Semgrep"
      },
      "location": {
        "file": "WebApp/wwwroot/lib/jquery-validation-unobtrusive/jquery.validate.unobtrusive.js",
        "start_line": 203
      },
      "identifiers": [
        {
          "type": "semgrep_id",
          "name": "eslint.detect-object-injection",
          "value": "eslint.detect-object-injection",
          "url": "https://semgrep.dev/r/gitlab.eslint.detect-object-injection"
        },
        {
          "type": "cwe",
          "name": "CWE-94",
          "value": "94",
          "url": "https://cwe.mitre.org/data/definitions/94.html"
        },
        {
          "type": "eslint_rule_id",
          "name": "ESLint rule ID security/detect-object-injection",
          "value": "security/detect-object-injection"
        }
      ]
    },
    {
      "id": "e7f28f76a8a38c40a603eb740d1c4b6daf0c12d005b4ec8f429d67fb4df2f97e",
      "category": "sast",
      "message": "Improper Control of Generation of Code ('Code Injection')",
      "description": "Bracket object notation with user input is present, this might allow an attacker to access all properties of the object and even it's prototype, leading to possible code execution.",
      "cve": "",
      "severity": "Medium",
      "scanner": {
        "id": "semgrep",
        "name": "Semgrep"
      },
      "location": {
        "file": "WebApp/wwwroot/lib/jquery-validation-unobtrusive/jquery.validate.unobtrusive.js",
        "start_line": 331
      },
      "identifiers": [
        {
          "type": "semgrep_id",
          "name": "eslint.detect-object-injection",
          "value": "eslint.detect-object-injection",
          "url": "https://semgrep.dev/r/gitlab.eslint.detect-object-injection"
        },
        {
          "type": "cwe",
          "name": "CWE-94",
          "value": "94",
          "url": "https://cwe.mitre.org/data/definitions/94.html"
        },
        {
          "type": "eslint_rule_id",
          "name": "ESLint rule ID security/detect-object-injection",
          "value": "security/detect-object-injection"
        }
      ]
    },
    {
      "id": "90e70dff80084f7b5ab1f1682f787f35df1adc7c643681937f39bf7c373ff657",
      "category": "sast",
      "message": "Use of Cryptographically Weak Pseudo-Random Number Generator (PRNG)",
      "description": "The use of a predictable random value can lead to vulnerabilities when used in certain security\ncritical contexts.\n",
      "cve": "",
      "severity": "Medium",
      "scanner": {
        "id": "semgrep",
        "name": "Semgrep"
      },
      "location": {
        "file": "WebLib/GetRandom.cs",
        "start_line": 11
      },
      "identifiers": [
        {
          "type": "semgrep_id",
          "name": "security_code_scan.SCS0005-1",
          "value": "security_code_scan.SCS0005-1"
        },
        {
          "type": "cwe",
          "name": "CWE-338",
          "value": "338",
          "url": "https://cwe.mitre.org/data/definitions/338.html"
        },
        {
          "type": "security_code_scan_rule_id",
          "name": "SCS0005",
          "value": "SCS0005"
        }
      ],
      "tracking": {
        "type": "source",
        "items": [
          {
            "file": "WebLib/GetRandom.cs",
            "line_start": 11,
            "line_end": 11,
            "signatures": [
              {
                "algorithm": "scope_offset",
                "value": "WebLib/GetRandom.cs|WebLib[0]|GetRandom[0]|RandomNumber[0]:4"
              }
            ]
          }
        ]
      }
    }
  ],
  "scan": {
    "analyzer": {
      "id": "semgrep",
      "name": "Semgrep",
      "url": "https://gitlab.com/gitlab-org/security-products/analyzers/semgrep",
      "vendor": {
        "name": "GitLab"
      },
      "version": "3.7.2"
    },
    "scanner": {
      "id": "semgrep",
      "name": "Semgrep",
      "url": "https://github.com/returntocorp/semgrep",
      "vendor": {
        "name": "GitLab"
      },
      "version": "0.110.0"
    },
    "type": "sast",
    "start_time": "2022-09-02T18:09:29",
    "end_time": "2022-09-02T18:09:39",
    "status": "success"
  }
}
